Global Suicide Statistics and the World Happiness Report
…
who <- who %>% group_by(country, year) %>% na.omit %>% 
  select(-age,-sex) %>% 
  mutate(tot.pop = sum(population)) %>% select(-population)%>%
  mutate(tot.sui = sum(suicides_no)) %>% select(-suicides_no) %>%
  distinct() %>% mutate(sui.rate = (tot.sui/tot.pop)*100)
who <- who %>% group_by(country) %>% filter(year == max(year))
whr <- read.csv("world_happiness_report.csv")
whr <- whr %>% na.omit %>% 
  rename(country = Country.or.region)%>%
  arrange(desc(Overall.rank))
whr_wide <- whr %>% pivot_wider(names_from = country, values_from = Overall.rank)
whr_longer <- whr_wide %>% pivot_longer(8:163, names_to = "country")
pivot_longer(whr_wide, 8:163, names_to = "country", values_to = "Ranking", values_drop_na = T) 

## # A tibble: 156 x 9
##    Score GDP.per.capita Social.support Healthy.life.ex… Freedom.to.make…
##    <dbl>          <dbl>          <dbl>            <dbl>            <dbl>
##  1  2.85          0.306          0.575            0.295            0.01 
##  2  3.08          0.026          0                0.105            0.225
##  3  3.20          0.35           0.517            0.361            0    
##  4  3.23          0.476          0.885            0.499            0.417
##  5  3.33          0.359          0.711            0.614            0.555
##  6  3.38          0.287          1.16             0.463            0.143
##  7  3.41          0.191          0.56             0.495            0.443
##  8  3.46          0.619          0.378            0.44             0.013
##  9  3.49          1.04           1.14             0.538            0.455
## 10  3.60          0.323          0.688            0.449            0.026
## # … with 146 more rows, and 4 more variables: Generosity <dbl>,
## #   Perceptions.of.corruption <dbl>, country <chr>, Ranking <int>
…
